DSS R and Spark tutorial
…
##  Conflicts  tidyverse_conflicts() 
##  dplyr::filter() masks stats::filter()
##  dplyr::lag()    masks stats::lag()

destinations <- group_by(flights, dest)
summarise(destinations,
  planes = n_distinct(tailnum),
  flights = n()
)

## # A tibble: 105 x 3
##    dest  planes flights
##    <chr>  <int>   <int>
##  1 ABQ      108     254
##  2 ACK       58     265
##  3 ALB      172     439
##  4 ANC        6       8
##  5 ATL     1180   17215
##  6 AUS      993    2439
##  7 AVL      159     275
##  8 BDL      186     443
##  9 BGR       46     375
## 10 BHM       45     297
## # ... with 95 more rows

We can use these functions as a grammer, by using pipes %>%, which simply puts the output of one function in the next. So long lists of dplyr functions with temporariy variables, etc., can easily be read as follows:

library(nycflights13)
group_by(flights, dest) %>%
  summarise(planes = n_distinct(tailnum),
            flights = n()) %>%
  mutate(fl_per_plane = flights / planes)

## # A tibble: 105 x 4
##    dest  planes flights fl_per_plane
##    <chr>  <int>   <int>        <dbl>
##  1 ABQ      108     254         2.35
##  2 ACK       58     265         4.57
##  3 ALB      172     439         2.55
##  4 ANC        6       8         1.33
##  5 ATL     1180   17215        14.6 
##  6 AUS      993    2439         2.46
##  7 AVL      159     275         1.73
##  8 BDL      186     443         2.38
##  9 BGR       46     375         8.15
## 10 BHM       45     297         6.6 
## # ... with 95 more rows
…
